Chapter 10 - Exercises
…
10.15

one <-  df_post_points |> sample_n(1) 

b0 <- one$`(Intercept)`
b1 <- one$aroma
s <- one$sigma 

one_sim <- new_coffee |> mutate(mu=b0+b1*aroma,
              predicted_point=rnorm(572,mean=mu, sd=s))

one_sim

## # A tibble: 572 x 6
##    farm_name                       total_cup_points aroma aftertaste    mu predicted_point
##    <fct>                                      <dbl> <dbl>      <dbl> <dbl>           <dbl>
##  1 -                                           84    7.67       7.67  82.6            80.7
##  2 1                                           76.2  7.33       6.5   80.6            83.9
##  3 200 farms                                   67.9  6.75       6.42  77.0            77.8
##  4 2000 farmers                                72.3  6.92       7.08  78.0            76.0
##  5 2000 farms                                  80.8  7.42       7.42  81.1            78.3
##  6 a shu she coffee <U+963F><U+675F><U+793E><U+5496><U+5561><U+838A><U+5712>             80.1  7.25       7.25  80.1            78.9
##  7 acacia hills                                81.6  7.42       7.33  81.1            81.9
##  8 ada farm                                    84.7  7.75       7.75  83.1            85.9
##  9 agropecuaria quiagral                       83.7  7.67       7.5   82.6            86.0
## 10 agua caliente                               83.2  7.5        7.33  81.6            82.4
## # ... with 562 more rows
…
